{
  "places": [
    {
      "id": 1,
      "imageName": "canolaChina.jpg",
      "imageUrl": "../../public/assets/images/canola-flower-fields-china.jpg",
      "name": "Canola Flower Fields",
      "state": "China",
      "posts": [],
      "type": "created by humans",
      "interesting": "canola is rapeseed",
      "links": "http://www.visiontimes.com/2015/03/03/a-gorgeous-sea-of-yellow-the-canola-flower-fields-of-luoping-photos.html?photo=2",
      "desription": "Opened in October 2016, Anantara Al Jabal Al Akhdar Resort brings the Anantara brand to Oman. Resting on the breathtaking Green Mountain, the resort combines luxury and style with a backdrop of outstanding panoramic views of these fabled mountains."
    },
    {
      "id": 2,
      "imageName": "antelope-canyon-usa.jpg",
      "imageUrl": "/src/public/assets/images/antelope-canyon-usa.jpg",
      "name": "Antelope Canyon",
      "state": "USA",
      "posts": [],
      "type": "created by hueeeeemans",
      "interesting": "canola is rapeseed",
      "links": "http://www.visiontimes.com/2015/03/03/a-gorgeous-sea-of-yellow-the-canola-flower-fields-of-luoping-photos.html?photo=2",
      "description": "Antelope Canyon is a slot canyon in the American Southwest. It is located on Navajo land east of Page, Arizona. Antelope Canyon includes two separate, scenic slot canyon sections, referred to individually as Upper Antelope Canyon or The Crack; and Antelope Canyon or The Corkscrew."
    },
    {
      "id": 3,
      "imageName": "bamboo-forest-japan.jpg",
      "imageUrl": "../../public/assets/images/bamboo-forest-japan.jpg",
      "name": "Bamboo Forest",
      "state": "Japan",
      "posts": [],
      "type": "created by humans",
      "interesting": "canola is rapeseed",
      "links": "http://www.visiontimes.com/2015/03/03/a-gorgeous-sea-of-yellow-the-canola-flower-fields-of-luoping-photos.html?photo=2",
      "description": "Bamboo Forest is a tourist site in Arashiyama, Kyoto, Japan. On CNN, it was referred to as One of the most beautiful groves on Earth. The Ministry of the Environment included the Sagano Bamboo Forest on its list of 100 Soundscapes of Japan."
    },
    {
      "id": 4,
      "imageName": "black-forest-germany.jpg",
      "imageUrl": "../../public/assets/images/black-forest-germany.jpg",
      "name": "Black Forest",
      "state": "Germany",
      "posts": [],
      "type": "created by humans",
      "interesting": "canola is rapeseed",
      "links": "http://www.visiontimes.com/2015/03/03/a-gorgeous-sea-of-yellow-the-canola-flower-fields-of-luoping-photos.html?photo=2",
      "description": "The Black Forest stretches from the High Rhine in the south to the Kraichgau in the north. In the west it is bounded by the Upper Rhine Plain (which, from a natural region perspective, also includes the low chain of foothills); in the east it transitions to the Gäu, Baar and hill country west of the Klettgau. The Black Forest is the highest part of the South German Scarplands and much of it is densely wooded."
    },
    {
      "id": 5,
      "imageName": "bonn-germany.jpg",
      "imageUrl": "../../public/assets/images/canola-flower-fields-china.jpg",
      "name": "Canola Flower Fields",
      "state": "China",
      "posts": [],
      "type": "created by humans",
      "interesting": "canola is rapeseed",
      "links": "http://www.visiontimes.com/2015/03/03/a-gorgeous-sea-of-yellow-the-canola-flower-fields-of-luoping-photos.html?photo=2",
      "desription": "Opened in October 2016, Anantara Al Jabal Al Akhdar Resort brings the Anantara brand to Oman. Resting on the breathtaking Green Mountain, the resort combines luxury and style with a backdrop of outstanding panoramic views of these fabled mountains."
    },
    {
      "id": 6,
      "imageName": "hamilton-princess-bermuda.jpg",
      "imageUrl": "/src/public/assets/images/antelope-canyon-usa.jpg",
      "name": "Antelope Canyon",
      "state": "USA",
      "posts": [],
      "type": "created by hueeeeemans",
      "interesting": "canola is rapeseed",
      "links": "http://www.visiontimes.com/2015/03/03/a-gorgeous-sea-of-yellow-the-canola-flower-fields-of-luoping-photos.html?photo=2",
      "description": "Antelope Canyon is a slot canyon in the American Southwest. It is located on Navajo land east of Page, Arizona. Antelope Canyon includes two separate, scenic slot canyon sections, referred to individually as Upper Antelope Canyon or The Crack; and Antelope Canyon or The Corkscrew."
    },
    {
      "id": 7,
      "imageName": "tunnel-of-love-ukraine.jpg",
      "imageUrl": "../../public/assets/images/bamboo-forest-japan.jpg",
      "name": "Bamboo Forest",
      "state": "Japan",
      "posts": [],
      "type": "created by humans",
      "interesting": "canola is rapeseed",
      "links": "http://www.visiontimes.com/2015/03/03/a-gorgeous-sea-of-yellow-the-canola-flower-fields-of-luoping-photos.html?photo=2",
      "description": "Bamboo Forest is a tourist site in Arashiyama, Kyoto, Japan. On CNN, it was referred to as One of the most beautiful groves on Earth. The Ministry of the Environment included the Sagano Bamboo Forest on its list of 100 Soundscapes of Japan."
    },
    {
      "id": 8,
      "imageName": "hitachi-seaside-park-japan.jpg",
      "imageUrl": "../../public/assets/images/black-forest-germany.jpg",
      "name": "Black Forest",
      "state": "Germany",
      "posts": [],
      "type": "created by humans",
      "interesting": "canola is rapeseed",
      "links": "http://www.visiontimes.com/2015/03/03/a-gorgeous-sea-of-yellow-the-canola-flower-fields-of-luoping-photos.html?photo=2",
      "description": "The Black Forest stretches from the High Rhine in the south to the Kraichgau in the north. In the west it is bounded by the Upper Rhine Plain (which, from a natural region perspective, also includes the low chain of foothills); in the east it transitions to the Gäu, Baar and hill country west of the Klettgau. The Black Forest is the highest part of the South German Scarplands and much of it is densely wooded."
    },
    {
      "id": 9,
      "imageName": "jackson-hole-wyoming.jpg",
      "imageUrl": "../../public/assets/images/canola-flower-fields-china.jpg",
      "name": "Canola Flower Fields",
      "state": "China",
      "posts": [],
      "type": "created by humans",
      "interesting": "canola is rapeseed",
      "links": "http://www.visiontimes.com/2015/03/03/a-gorgeous-sea-of-yellow-the-canola-flower-fields-of-luoping-photos.html?photo=2",
      "desription": "Opened in October 2016, Anantara Al Jabal Al Akhdar Resort brings the Anantara brand to Oman. Resting on the breathtaking Green Mountain, the resort combines luxury and style with a backdrop of outstanding panoramic views of these fabled mountains."
    },
    {
      "id": 10,
      "imageName": "jura-france.jpg",
      "imageUrl": "/src/public/assets/images/antelope-canyon-usa.jpg",
      "name": "Antelope Canyon",
      "state": "USA",
      "posts": [],
      "type": "created by hueeeeemans",
      "interesting": "canola is rapeseed",
      "links": "http://www.visiontimes.com/2015/03/03/a-gorgeous-sea-of-yellow-the-canola-flower-fields-of-luoping-photos.html?photo=2",
      "description": "Antelope Canyon is a slot canyon in the American Southwest. It is located on Navajo land east of Page, Arizona. Antelope Canyon includes two separate, scenic slot canyon sections, referred to individually as Upper Antelope Canyon or The Crack; and Antelope Canyon or The Corkscrew."
    },
    {
      "id": 11,
      "imageName": "lake-hillier-australia.jpg",
      "imageUrl": "../../public/assets/images/bamboo-forest-japan.jpg",
      "name": "Bamboo Forest",
      "state": "Japan",
      "posts": [],
      "type": "created by humans",
      "interesting": "canola is rapeseed",
      "links": "http://www.visiontimes.com/2015/03/03/a-gorgeous-sea-of-yellow-the-canola-flower-fields-of-luoping-photos.html?photo=2",
      "description": "Bamboo Forest is a tourist site in Arashiyama, Kyoto, Japan. On CNN, it was referred to as One of the most beautiful groves on Earth. The Ministry of the Environment included the Sagano Bamboo Forest on its list of 100 Soundscapes of Japan."
    },
    {
      "id": 12,
      "imageName": "laos-vientiane-buddha-park.jpg",
      "imageUrl": "../../public/assets/images/black-forest-germany.jpg",
      "name": "Black Forest",
      "state": "Germany",
      "posts": [],
      "type": "created by humans",
      "interesting": "canola is rapeseed",
      "links": "http://www.visiontimes.com/2015/03/03/a-gorgeous-sea-of-yellow-the-canola-flower-fields-of-luoping-photos.html?photo=2",
      "description": "The Black Forest stretches from the High Rhine in the south to the Kraichgau in the north. In the west it is bounded by the Upper Rhine Plain (which, from a natural region perspective, also includes the low chain of foothills); in the east it transitions to the Gäu, Baar and hill country west of the Klettgau. The Black Forest is the highest part of the South German Scarplands and much of it is densely wooded."
    },
    {
      "id": 13,
      "imageName": "lavender-fields-france.jpg",
      "imageUrl": "../../public/assets/images/canola-flower-fields-china.jpg",
      "name": "Canola Flower Fields",
      "state": "China",
      "posts": [],
      "type": "created by humans",
      "interesting": "canola is rapeseed",
      "links": "http://www.visiontimes.com/2015/03/03/a-gorgeous-sea-of-yellow-the-canola-flower-fields-of-luoping-photos.html?photo=2",
      "desription": "Opened in October 2016, Anantara Al Jabal Al Akhdar Resort brings the Anantara brand to Oman. Resting on the breathtaking Green Mountain, the resort combines luxury and style with a backdrop of outstanding panoramic views of these fabled mountains."
    },
    {
      "id": 14,
      "imageName": "madagascar.jpg",
      "imageUrl": "/src/public/assets/images/antelope-canyon-usa.jpg",
      "name": "Antelope Canyon",
      "state": "USA",
      "posts": [],
      "type": "created by hueeeeemans",
      "interesting": "canola is rapeseed",
      "links": "http://www.visiontimes.com/2015/03/03/a-gorgeous-sea-of-yellow-the-canola-flower-fields-of-luoping-photos.html?photo=2",
      "description": "Antelope Canyon is a slot canyon in the American Southwest. It is located on Navajo land east of Page, Arizona. Antelope Canyon includes two separate, scenic slot canyon sections, referred to individually as Upper Antelope Canyon or The Crack; and Antelope Canyon or The Corkscrew."
    },
    {
      "id": 15,
      "imageName": "mendenhall-ice-caves-alaska.jpg",
      "imageUrl": "../../public/assets/images/bamboo-forest-japan.jpg",
      "name": "Bamboo Forest",
      "state": "Japan",
      "posts": [],
      "type": "created by humans",
      "interesting": "canola is rapeseed",
      "links": "http://www.visiontimes.com/2015/03/03/a-gorgeous-sea-of-yellow-the-canola-flower-fields-of-luoping-photos.html?photo=2",
      "description": "Bamboo Forest is a tourist site in Arashiyama, Kyoto, Japan. On CNN, it was referred to as One of the most beautiful groves on Earth. The Ministry of the Environment included the Sagano Bamboo Forest on its list of 100 Soundscapes of Japan."
    },
    {
      "id": 16,
      "imageName": "mount-roraima-venezuela.jpg",
      "imageUrl": "../../public/assets/images/black-forest-germany.jpg",
      "name": "Black Forest",
      "state": "Germany",
      "posts": [],
      "type": "created by humans",
      "interesting": "canola is rapeseed",
      "links": "http://www.visiontimes.com/2015/03/03/a-gorgeous-sea-of-yellow-the-canola-flower-fields-of-luoping-photos.html?photo=2",
      "description": "The Black Forest stretches from the High Rhine in the south to the Kraichgau in the north. In the west it is bounded by the Upper Rhine Plain (which, from a natural region perspective, also includes the low chain of foothills); in the east it transitions to the Gäu, Baar and hill country west of the Klettgau. The Black Forest is the highest part of the South German Scarplands and much of it is densely wooded."
    },
    {
      "id": 17,
      "imageName": "red-beach-panjin-china.jpg",
      "imageUrl": "../../public/assets/images/bamboo-forest-japan.jpg",
      "name": "Bamboo Forest",
      "state": "Japan",
      "posts": [],
      "type": "created by humans",
      "interesting": "canola is rapeseed",
      "links": "http://www.visiontimes.com/2015/03/03/a-gorgeous-sea-of-yellow-the-canola-flower-fields-of-luoping-photos.html?photo=2",
      "description": "Bamboo Forest is a tourist site in Arashiyama, Kyoto, Japan. On CNN, it was referred to as One of the most beautiful groves on Earth. The Ministry of the Environment included the Sagano Bamboo Forest on its list of 100 Soundscapes of Japan."
    },
    {
      "id": 18,
      "imageName": "tea-fiels-china.jpg",
      "imageUrl": "../../public/assets/images/black-forest-germany.jpg",
      "name": "Black Forest",
      "state": "Germany",
      "posts": [],
      "type": "created by humans",
      "interesting": "canola is rapeseed",
      "links": "http://www.visiontimes.com/2015/03/03/a-gorgeous-sea-of-yellow-the-canola-flower-fields-of-luoping-photos.html?photo=2",
      "description": "The Black Forest stretches from the High Rhine in the south to the Kraichgau in the north. In the west it is bounded by the Upper Rhine Plain (which, from a natural region perspective, also includes the low chain of foothills); in the east it transitions to the Gäu, Baar and hill country west of the Klettgau. The Black Forest is the highest part of the South German Scarplands and much of it is densely wooded."
    },
    {
      "id": 19,
      "imageName": "tulip-fields-netherlands.jpg",
      "imageUrl": "../../public/assets/images/black-forest-germany.jpg",
      "name": "Black Forest",
      "state": "Germany",
      "posts": [],
      "type": "created by humans",
      "interesting": "canola is rapeseed",
      "links": "http://www.visiontimes.com/2015/03/03/a-gorgeous-sea-of-yellow-the-canola-flower-fields-of-luoping-photos.html?photo=2",
      "description": "The Black Forest stretches from the High Rhine in the south to the Kraichgau in the north. In the west it is bounded by the Upper Rhine Plain (which, from a natural region perspective, also includes the low chain of foothills); in the east it transitions to the Gäu, Baar and hill country west of the Klettgau. The Black Forest is the highest part of the South German Scarplands and much of it is densely wooded."
    },
    {
      "id": 20,
      "imageName": "tianzi-mountains-china.jpg",
      "imageUrl": "../../public/assets/images/bamboo-forest-japan.jpg",
      "name": "Bamboo Forest",
      "state": "Japan",
      "posts": [],
      "type": "created by humans",
      "interesting": "canola is rapeseed",
      "links": "http://www.visiontimes.com/2015/03/03/a-gorgeous-sea-of-yellow-the-canola-flower-fields-of-luoping-photos.html?photo=2",
      "description": "Bamboo Forest is a tourist site in Arashiyama, Kyoto, Japan. On CNN, it was referred to as One of the most beautiful groves on Earth. The Ministry of the Environment included the Sagano Bamboo Forest on its list of 100 Soundscapes of Japan."
    },
    {
      "id": 21,
      "imageName": "tunnel-of-love-ukraine.jpg",
      "imageUrl": "../../public/assets/images/black-forest-germany.jpg",
      "name": "Black Forest",
      "state": "Germany",
      "posts": [],
      "type": "created by humans",
      "interesting": "canola is rapeseed",
      "links": "http://www.visiontimes.com/2015/03/03/a-gorgeous-sea-of-yellow-the-canola-flower-fields-of-luoping-photos.html?photo=2",
      "description": "The Black Forest stretches from the High Rhine in the south to the Kraichgau in the north. In the west it is bounded by the Upper Rhine Plain (which, from a natural region perspective, also includes the low chain of foothills); in the east it transitions to the Gäu, Baar and hill country west of the Klettgau. The Black Forest is the highest part of the South German Scarplands and much of it is densely wooded."
    },
    {
      "id": 22,
      "imageName": "anantaraOman.jpg",
      "imageUrl": "../../public/assets/images/black-forest-germany.jpg",
      "name": "Black Forest",
      "state": "Germany",
      "posts": [],
      "type": "created by humans",
      "interesting": "canola is rapeseed",
      "links": "http://www.visiontimes.com/2015/03/03/a-gorgeous-sea-of-yellow-the-canola-flower-fields-of-luoping-photos.html?photo=2",
      "description": "The Black Forest stretches from the High Rhine in the south to the Kraichgau in the north. In the west it is bounded by the Upper Rhine Plain (which, from a natural region perspective, also includes the low chain of foothills); in the east it transitions to the Gäu, Baar and hill country west of the Klettgau. The Black Forest is the highest part of the South German Scarplands and much of it is densely wooded."
    }
  ],
  "users": [
    {
      "username": "aa",
      "firstname": "aa",
      "lastname": "aa",
      "email": "aa",
      "password": "a",
      "id": 1
    },
    {
      "username": "ccc",
      "firstname": "cc",
      "lastname": "cc",
      "email": "cc",
      "password": "ccc",
      "id": 2
    },
    {
      "username": "aa",
      "firstname": "",
      "lastname": "",
      "email": "",
      "password": "a",
      "id": 3
    },
    {
      "username": "homee",
      "firstname": "Homer",
      "lastname": "Simpson",
      "email": "homer@simpson.com",
      "password": "secret",
      "id": 4
    },
    {
      "username": "admin",
      "firstname": "Administrator",
      "lastname": "Clever",
      "email": "admin@admin.com",
      "password": "admin",
      "id": 5
    }
  ]
}